info face="ArialRoundedMTBold" size=38 bold=0 italic=0 charset="" unicode=0 stretchH=100 smooth=1 aa=1 padding=0,0,0,0 spacing=2,2
common lineHeight=45 base=36 scaleW=512 scaleH=256 pages=1 packed=0
page id=0 file="bmpFont.png"
chars count=95
char id=32     x=490   y=159   width=0     height=0     xoffset=0     yoffset=37    xadvance=10    page=0 chnl=0 letter="space"
char id=33     x=141   y=86    width=12    height=35    xoffset=4     yoffset=2     xadvance=13    page=0 chnl=0 letter="!"
char id=34     x=347   y=159   width=21    height=16    xoffset=2     yoffset=3     xadvance=18    page=0 chnl=0 letter="""
char id=35     x=280   y=49    width=27    height=35    xoffset=0     yoffset=2     xadvance=21    page=0 chnl=0 letter="#"
char id=36     x=2     y=2     width=26    height=45    xoffset=1     yoffset=-1    xadvance=23    page=0 chnl=0 letter="$"
char id=37     x=302   y=2     width=37    height=35    xoffset=1     yoffset=3     xadvance=32    page=0 chnl=0 letter="%"
char id=38     x=410   y=2     width=32    height=35    xoffset=2     yoffset=2     xadvance=29    page=0 chnl=0 letter="&"
char id=39     x=370   y=159   width=12    height=16    xoffset=2     yoffset=3     xadvance=9     page=0 chnl=0 letter="'"
char id=40     x=135   y=2     width=16    height=42    xoffset=2     yoffset=3     xadvance=13    page=0 chnl=0 letter="("
char id=41     x=153   y=2     width=16    height=42    xoffset=2     yoffset=3     xadvance=13    page=0 chnl=0 letter=")"
char id=42     x=280   y=159   width=22    height=21    xoffset=1     yoffset=2     xadvance=17    page=0 chnl=0 letter="*"
char id=43     x=226   y=159   width=26    height=26    xoffset=2     yoffset=7     xadvance=22    page=0 chnl=0 letter="+"
char id=44     x=332   y=159   width=13    height=18    xoffset=3     yoffset=25    xadvance=12    page=0 chnl=0 letter=","
char id=45     x=442   y=159   width=18    height=11    xoffset=1     yoffset=18    xadvance=13    page=0 chnl=0 letter="-"
char id=46     x=428   y=159   width=12    height=12    xoffset=3     yoffset=25    xadvance=12    page=0 chnl=0 letter="."
char id=47     x=105   y=86    width=16    height=35    xoffset=1     yoffset=2     xadvance=11    page=0 chnl=0 letter="/"
char id=48     x=114   y=123   width=25    height=34    xoffset=2     yoffset=3     xadvance=23    page=0 chnl=0 letter="0"
char id=49     x=244   y=123   width=20    height=34    xoffset=2     yoffset=3     xadvance=23    page=0 chnl=0 letter="1"
char id=50     x=86    y=123   width=26    height=34    xoffset=2     yoffset=3     xadvance=23    page=0 chnl=0 letter="2"
char id=51     x=141   y=123   width=25    height=34    xoffset=2     yoffset=3     xadvance=23    page=0 chnl=0 letter="3"
char id=52     x=250   y=49    width=28    height=35    xoffset=0     yoffset=2     xadvance=23    page=0 chnl=0 letter="4"
char id=53     x=58    y=123   width=26    height=34    xoffset=2     yoffset=3     xadvance=23    page=0 chnl=0 letter="5"
char id=54     x=434   y=86    width=26    height=34    xoffset=2     yoffset=3     xadvance=23    page=0 chnl=0 letter="6"
char id=55     x=195   y=123   width=25    height=34    xoffset=3     yoffset=3     xadvance=23    page=0 chnl=0 letter="7"
char id=56     x=462   y=86    width=26    height=34    xoffset=2     yoffset=3     xadvance=23    page=0 chnl=0 letter="8"
char id=57     x=30    y=123   width=26    height=34    xoffset=1     yoffset=3     xadvance=23    page=0 chnl=0 letter="9"
char id=58     x=184   y=159   width=12    height=27    xoffset=3     yoffset=10    xadvance=12    page=0 chnl=0 letter=":"
char id=59     x=280   y=123   width=13    height=33    xoffset=3     yoffset=10    xadvance=12    page=0 chnl=0 letter=";"
char id=60     x=484   y=123   width=25    height=27    xoffset=2     yoffset=7     xadvance=22    page=0 chnl=0 letter="<"
char id=61     x=304   y=159   width=26    height=20    xoffset=2     yoffset=10    xadvance=22    page=0 chnl=0 letter="="
char id=62     x=2     y=159   width=25    height=27    xoffset=2     yoffset=7     xadvance=22    page=0 chnl=0 letter=">"
char id=63     x=477   y=49    width=25    height=35    xoffset=2     yoffset=2     xadvance=22    page=0 chnl=0 letter="?"
char id=64     x=30    y=2     width=42    height=42    xoffset=1     yoffset=3     xadvance=37    page=0 chnl=0 letter="@"
char id=65     x=444   y=2     width=32    height=35    xoffset=1     yoffset=2     xadvance=27    page=0 chnl=0 letter="A"
char id=66     x=345   y=86    width=29    height=34    xoffset=3     yoffset=3     xadvance=27    page=0 chnl=0 letter="B"
char id=67     x=478   y=2     width=31    height=35    xoffset=2     yoffset=2     xadvance=28    page=0 chnl=0 letter="C"
char id=68     x=282   y=86    width=30    height=34    xoffset=3     yoffset=3     xadvance=28    page=0 chnl=0 letter="D"
char id=69     x=405   y=86    width=27    height=34    xoffset=3     yoffset=3     xadvance=25    page=0 chnl=0 letter="E"
char id=70     x=168   y=123   width=25    height=34    xoffset=3     yoffset=3     xadvance=23    page=0 chnl=0 letter="F"
char id=71     x=376   y=2     width=32    height=35    xoffset=2     yoffset=2     xadvance=30    page=0 chnl=0 letter="G"
char id=72     x=66    y=49    width=29    height=35    xoffset=3     yoffset=2     xadvance=29    page=0 chnl=0 letter="H"
char id=73     x=155   y=86    width=12    height=35    xoffset=3     yoffset=2     xadvance=12    page=0 chnl=0 letter="I"
char id=74     x=2     y=86    width=25    height=35    xoffset=1     yoffset=2     xadvance=22    page=0 chnl=0 letter="J"
char id=75     x=34    y=49    width=30    height=35    xoffset=3     yoffset=2     xadvance=28    page=0 chnl=0 letter="K"
char id=76     x=2     y=123   width=26    height=34    xoffset=3     yoffset=3     xadvance=23    page=0 chnl=0 letter="L"
char id=77     x=183   y=86    width=33    height=34    xoffset=3     yoffset=3     xadvance=32    page=0 chnl=0 letter="M"
char id=78     x=128   y=49    width=29    height=35    xoffset=3     yoffset=2     xadvance=29    page=0 chnl=0 letter="N"
char id=79     x=341   y=2     width=33    height=35    xoffset=2     yoffset=2     xadvance=30    page=0 chnl=0 letter="O"
char id=80     x=376   y=86    width=27    height=34    xoffset=3     yoffset=3     xadvance=25    page=0 chnl=0 letter="P"
char id=81     x=222   y=2     width=35    height=37    xoffset=2     yoffset=3     xadvance=30    page=0 chnl=0 letter="Q"
char id=82     x=314   y=86    width=29    height=34    xoffset=3     yoffset=3     xadvance=27    page=0 chnl=0 letter="R"
char id=83     x=190   y=49    width=28    height=35    xoffset=2     yoffset=2     xadvance=25    page=0 chnl=0 letter="S"
char id=84     x=218   y=86    width=30    height=34    xoffset=0     yoffset=3     xadvance=24    page=0 chnl=0 letter="T"
char id=85     x=97    y=49    width=29    height=35    xoffset=3     yoffset=2     xadvance=29    page=0 chnl=0 letter="U"
char id=86     x=2     y=49    width=30    height=35    xoffset=1     yoffset=2     xadvance=26    page=0 chnl=0 letter="V"
char id=87     x=259   y=2     width=41    height=35    xoffset=1     yoffset=2     xadvance=36    page=0 chnl=0 letter="W"
char id=88     x=220   y=49    width=28    height=35    xoffset=1     yoffset=2     xadvance=23    page=0 chnl=0 letter="X"
char id=89     x=159   y=49    width=29    height=35    xoffset=1     yoffset=2     xadvance=24    page=0 chnl=0 letter="Y"
char id=90     x=250   y=86    width=30    height=34    xoffset=0     yoffset=3     xadvance=25    page=0 chnl=0 letter="Z"
char id=91     x=184   y=2     width=17    height=41    xoffset=3     yoffset=3     xadvance=13    page=0 chnl=0 letter="["
char id=92     x=123   y=86    width=16    height=35    xoffset=1     yoffset=2     xadvance=11    page=0 chnl=0 letter="\"
char id=93     x=203   y=2     width=17    height=41    xoffset=0     yoffset=3     xadvance=13    page=0 chnl=0 letter="]"
char id=94     x=254   y=159   width=24    height=21    xoffset=2     yoffset=3     xadvance=22    page=0 chnl=0 letter="^"
char id=95     x=462   y=159   width=26    height=8     xoffset=-0    yoffset=34    xadvance=19    page=0 chnl=0 letter="_"
char id=96     x=412   y=159   width=14    height=12    xoffset=2     yoffset=3     xadvance=13    page=0 chnl=0 letter="`"
char id=97     x=400   y=123   width=26    height=27    xoffset=2     yoffset=10    xadvance=23    page=0 chnl=0 letter="a"
char id=98     x=337   y=49    width=26    height=35    xoffset=3     yoffset=2     xadvance=24    page=0 chnl=0 letter="b"
char id=99     x=428   y=123   width=26    height=27    xoffset=2     yoffset=10    xadvance=23    page=0 chnl=0 letter="c"
char id=100    x=309   y=49    width=26    height=35    xoffset=1     yoffset=2     xadvance=24    page=0 chnl=0 letter="d"
char id=101    x=456   y=123   width=26    height=27    xoffset=2     yoffset=10    xadvance=23    page=0 chnl=0 letter="e"
char id=102    x=82    y=86    width=21    height=35    xoffset=-0    yoffset=2     xadvance=13    page=0 chnl=0 letter="f"
char id=103    x=365   y=49    width=26    height=35    xoffset=1     yoffset=10    xadvance=24    page=0 chnl=0 letter="g"
char id=104    x=29    y=86    width=25    height=35    xoffset=3     yoffset=2     xadvance=23    page=0 chnl=0 letter="h"
char id=105    x=266   y=123   width=12    height=34    xoffset=3     yoffset=3     xadvance=10    page=0 chnl=0 letter="i"
char id=106    x=116   y=2     width=17    height=42    xoffset=-3    yoffset=3     xadvance=10    page=0 chnl=0 letter="j"
char id=107    x=56    y=86    width=24    height=35    xoffset=3     yoffset=2     xadvance=22    page=0 chnl=0 letter="k"
char id=108    x=169   y=86    width=12    height=35    xoffset=3     yoffset=2     xadvance=10    page=0 chnl=0 letter="l"
char id=109    x=295   y=123   width=36    height=27    xoffset=2     yoffset=10    xadvance=34    page=0 chnl=0 letter="m"
char id=110    x=56    y=159   width=25    height=27    xoffset=2     yoffset=10    xadvance=23    page=0 chnl=0 letter="n"
char id=111    x=371   y=123   width=27    height=27    xoffset=1     yoffset=10    xadvance=23    page=0 chnl=0 letter="o"
char id=112    x=393   y=49    width=26    height=35    xoffset=3     yoffset=10    xadvance=24    page=0 chnl=0 letter="p"
char id=113    x=421   y=49    width=26    height=35    xoffset=1     yoffset=10    xadvance=24    page=0 chnl=0 letter="q"
char id=114    x=162   y=159   width=20    height=27    xoffset=3     yoffset=10    xadvance=17    page=0 chnl=0 letter="r"
char id=115    x=136   y=159   width=24    height=27    xoffset=2     yoffset=10    xadvance=21    page=0 chnl=0 letter="s"
char id=116    x=222   y=123   width=20    height=34    xoffset=1     yoffset=3     xadvance=13    page=0 chnl=0 letter="t"
char id=117    x=83    y=159   width=25    height=27    xoffset=2     yoffset=10    xadvance=23    page=0 chnl=0 letter="u"
char id=118    x=29    y=159   width=25    height=27    xoffset=1     yoffset=10    xadvance=21    page=0 chnl=0 letter="v"
char id=119    x=333   y=123   width=36    height=27    xoffset=1     yoffset=10    xadvance=31    page=0 chnl=0 letter="w"
char id=120    x=110   y=159   width=24    height=27    xoffset=1     yoffset=10    xadvance=20    page=0 chnl=0 letter="x"
char id=121    x=449   y=49    width=26    height=35    xoffset=0     yoffset=10    xadvance=21    page=0 chnl=0 letter="y"
char id=122    x=198   y=159   width=26    height=26    xoffset=0     yoffset=11    xadvance=20    page=0 chnl=0 letter="z"
char id=123    x=74    y=2     width=19    height=42    xoffset=1     yoffset=3     xadvance=15    page=0 chnl=0 letter="{"
char id=124    x=171   y=2     width=11    height=42    xoffset=3     yoffset=3     xadvance=11    page=0 chnl=0 letter="|"
char id=125    x=95    y=2     width=19    height=42    xoffset=1     yoffset=3     xadvance=15    page=0 chnl=0 letter="}"
char id=126    x=384   y=159   width=26    height=14    xoffset=1     yoffset=13    xadvance=22    page=0 chnl=0 letter="~"
kernings count=319
kerning first=36 second=62 amount=4
kerning first=36 second=63 amount=1
kerning first=40 second=74 amount=-1
kerning first=40 second=103 amount=-1
kerning first=40 second=106 amount=3
kerning first=65 second=67 amount=-1
kerning first=65 second=71 amount=-1
kerning first=65 second=79 amount=-1
kerning first=65 second=81 amount=-1
kerning first=65 second=84 amount=-3
kerning first=65 second=85 amount=-1
kerning first=65 second=86 amount=-2
kerning first=65 second=89 amount=-2
kerning first=65 second=118 amount=-1
kerning first=65 second=119 amount=-1
kerning first=66 second=44 amount=-1
kerning first=66 second=46 amount=-2
kerning first=66 second=65 amount=-1
kerning first=66 second=85 amount=-1
kerning first=67 second=44 amount=-1
kerning first=67 second=46 amount=-2
kerning first=68 second=44 amount=-2
kerning first=68 second=46 amount=-3
kerning first=68 second=65 amount=-1
kerning first=68 second=86 amount=-1
kerning first=68 second=87 amount=1
kerning first=68 second=89 amount=-1
kerning first=70 second=44 amount=-4
kerning first=70 second=46 amount=-5
kerning first=70 second=65 amount=-3
kerning first=70 second=97 amount=-1
kerning first=70 second=101 amount=-1
kerning first=70 second=105 amount=-1
kerning first=70 second=108 amount=-1
kerning first=70 second=111 amount=-1
kerning first=70 second=114 amount=-1
kerning first=71 second=44 amount=-1
kerning first=71 second=46 amount=-1
kerning first=71 second=65 amount=-1
kerning first=71 second=71 amount=-1
kerning first=74 second=44 amount=-2
kerning first=74 second=46 amount=-3
kerning first=74 second=58 amount=-1
kerning first=74 second=59 amount=-1
kerning first=74 second=65 amount=-1
kerning first=75 second=41 amount=-1
kerning first=75 second=67 amount=-2
kerning first=75 second=71 amount=-2
kerning first=75 second=79 amount=-1
kerning first=75 second=97 amount=-1
kerning first=75 second=101 amount=-1
kerning first=75 second=111 amount=-1
kerning first=75 second=117 amount=-1
kerning first=75 second=118 amount=-2
kerning first=75 second=119 amount=-2
kerning first=75 second=121 amount=-1
kerning first=76 second=65 amount=-1
kerning first=76 second=67 amount=-2
kerning first=76 second=71 amount=-2
kerning first=76 second=79 amount=-2
kerning first=76 second=83 amount=-1
kerning first=76 second=84 amount=-5
kerning first=76 second=85 amount=-2
kerning first=76 second=86 amount=-4
kerning first=76 second=87 amount=-2
kerning first=76 second=89 amount=-5
kerning first=76 second=119 amount=-1
kerning first=76 second=121 amount=-1
kerning first=78 second=44 amount=-1
kerning first=78 second=46 amount=-1
kerning first=78 second=65 amount=-1
kerning first=79 second=44 amount=-1
kerning first=79 second=46 amount=-2
kerning first=79 second=65 amount=-1
kerning first=79 second=84 amount=-1
kerning first=79 second=86 amount=-1
kerning first=79 second=88 amount=-1
kerning first=79 second=89 amount=-1
kerning first=80 second=44 amount=-5
kerning first=80 second=46 amount=-6
kerning first=80 second=65 amount=-3
kerning first=80 second=97 amount=-1
kerning first=80 second=101 amount=-1
kerning first=80 second=111 amount=-1
kerning first=81 second=84 amount=-1
kerning first=81 second=86 amount=-1
kerning first=81 second=87 amount=1
kerning first=81 second=89 amount=-2
kerning first=81 second=102 amount=1
kerning first=81 second=103 amount=1
kerning first=81 second=106 amount=2
kerning first=81 second=112 amount=1
kerning first=82 second=41 amount=-1
kerning first=82 second=67 amount=-1
kerning first=82 second=71 amount=-1
kerning first=82 second=84 amount=-2
kerning first=82 second=85 amount=-1
kerning first=82 second=86 amount=-1
kerning first=82 second=89 amount=-1
kerning first=82 second=97 amount=-1
kerning first=82 second=101 amount=-1
kerning first=82 second=111 amount=-1
kerning first=82 second=117 amount=-1
kerning first=82 second=118 amount=-1
kerning first=82 second=119 amount=-1
kerning first=82 second=121 amount=-1
kerning first=83 second=44 amount=-1
kerning first=83 second=46 amount=-1
kerning first=84 second=44 amount=-4
kerning first=84 second=45 amount=-2
kerning first=84 second=46 amount=-5
kerning first=84 second=58 amount=-2
kerning first=84 second=59 amount=-2
kerning first=84 second=65 amount=-2
kerning first=84 second=67 amount=-1
kerning first=84 second=71 amount=-1
kerning first=84 second=79 amount=-1
kerning first=84 second=81 amount=-1
kerning first=84 second=97 amount=-2
kerning first=84 second=99 amount=-2
kerning first=84 second=101 amount=-2
kerning first=84 second=104 amount=-1
kerning first=84 second=105 amount=-1
kerning first=84 second=109 amount=-1
kerning first=84 second=111 amount=-2
kerning first=84 second=114 amount=-1
kerning first=84 second=115 amount=-2
kerning first=84 second=117 amount=-2
kerning first=84 second=119 amount=-1
kerning first=84 second=121 amount=-1
kerning first=84 second=122 amount=-1
kerning first=85 second=44 amount=-1
kerning first=85 second=46 amount=-2
kerning first=85 second=65 amount=-2
kerning first=86 second=44 amount=-4
kerning first=86 second=45 amount=-2
kerning first=86 second=46 amount=-5
kerning first=86 second=58 amount=-1
kerning first=86 second=59 amount=-1
kerning first=86 second=65 amount=-2
kerning first=86 second=67 amount=-1
kerning first=86 second=71 amount=-1
kerning first=86 second=79 amount=-1
kerning first=86 second=81 amount=-1
kerning first=86 second=97 amount=-2
kerning first=86 second=101 amount=-2
kerning first=86 second=105 amount=-1
kerning first=86 second=111 amount=-2
kerning first=86 second=114 amount=-1
kerning first=86 second=117 amount=-1
kerning first=86 second=121 amount=-1
kerning first=87 second=44 amount=-2
kerning first=87 second=45 amount=-1
kerning first=87 second=46 amount=-2
kerning first=87 second=58 amount=-1
kerning first=87 second=59 amount=-1
kerning first=87 second=97 amount=-1
kerning first=87 second=100 amount=-1
kerning first=87 second=101 amount=-1
kerning first=87 second=111 amount=-1
kerning first=87 second=114 amount=-1
kerning first=87 second=117 amount=-1
kerning first=87 second=121 amount=-1
kerning first=88 second=67 amount=-1
kerning first=88 second=71 amount=-1
kerning first=88 second=79 amount=-1
kerning first=89 second=44 amount=-4
kerning first=89 second=45 amount=-2
kerning first=89 second=46 amount=-4
kerning first=89 second=58 amount=-2
kerning first=89 second=59 amount=-2
kerning first=89 second=65 amount=-2
kerning first=89 second=67 amount=-1
kerning first=89 second=71 amount=-1
kerning first=89 second=79 amount=-1
kerning first=89 second=83 amount=-1
kerning first=89 second=97 amount=-2
kerning first=89 second=100 amount=-2
kerning first=89 second=101 amount=-2
kerning first=89 second=105 amount=-1
kerning first=89 second=111 amount=-2
kerning first=89 second=112 amount=-2
kerning first=89 second=113 amount=-3
kerning first=89 second=117 amount=-2
kerning first=89 second=118 amount=-1
kerning first=97 second=98 amount=-1
kerning first=97 second=103 amount=-1
kerning first=97 second=112 amount=-1
kerning first=97 second=116 amount=-1
kerning first=97 second=118 amount=-1
kerning first=97 second=119 amount=-1
kerning first=97 second=121 amount=-1
kerning first=98 second=44 amount=-2
kerning first=98 second=46 amount=-2
kerning first=98 second=98 amount=-1
kerning first=98 second=108 amount=-1
kerning first=98 second=117 amount=-1
kerning first=98 second=118 amount=-1
kerning first=98 second=119 amount=-1
kerning first=98 second=121 amount=-1
kerning first=99 second=44 amount=-1
kerning first=99 second=46 amount=-2
kerning first=99 second=104 amount=-1
kerning first=99 second=107 amount=-1
kerning first=99 second=108 amount=-1
kerning first=99 second=121 amount=-1
kerning first=100 second=118 amount=-1
kerning first=101 second=44 amount=-1
kerning first=101 second=46 amount=-2
kerning first=101 second=98 amount=-1
kerning first=101 second=103 amount=-1
kerning first=101 second=112 amount=-1
kerning first=101 second=118 amount=-1
kerning first=101 second=119 amount=-1
kerning first=101 second=120 amount=-1
kerning first=101 second=121 amount=-1
kerning first=101 second=122 amount=-1
kerning first=102 second=32 amount=4
kerning first=102 second=33 amount=1
kerning first=102 second=41 amount=1
kerning first=102 second=44 amount=-1
kerning first=102 second=46 amount=-2
kerning first=102 second=63 amount=2
kerning first=102 second=97 amount=-1
kerning first=102 second=101 amount=-1
kerning first=102 second=102 amount=1
kerning first=102 second=111 amount=-1
kerning first=103 second=44 amount=-1
kerning first=103 second=46 amount=-1
kerning first=103 second=97 amount=-1
kerning first=103 second=101 amount=-1
kerning first=103 second=103 amount=-1
kerning first=103 second=108 amount=-1
kerning first=103 second=111 amount=-1
kerning first=103 second=112 amount=-1
kerning first=103 second=114 amount=-1
kerning first=107 second=97 amount=-1
kerning first=107 second=99 amount=-1
kerning first=107 second=100 amount=-1
kerning first=107 second=101 amount=-1
kerning first=107 second=103 amount=-1
kerning first=107 second=105 amount=-1
kerning first=107 second=108 amount=-1
kerning first=107 second=111 amount=-1
kerning first=107 second=112 amount=-1
kerning first=107 second=113 amount=-1
kerning first=107 second=115 amount=-1
kerning first=107 second=117 amount=-1
kerning first=107 second=121 amount=-1
kerning first=108 second=119 amount=-1
kerning first=109 second=117 amount=-1
kerning first=110 second=117 amount=-1
kerning first=110 second=118 amount=-1
kerning first=111 second=44 amount=-1
kerning first=111 second=46 amount=-2
kerning first=111 second=118 amount=-1
kerning first=111 second=120 amount=-1
kerning first=111 second=121 amount=-1
kerning first=112 second=44 amount=-1
kerning first=112 second=46 amount=-2
kerning first=112 second=119 amount=-1
kerning first=112 second=121 amount=-1
kerning first=112 second=122 amount=-1
kerning first=114 second=44 amount=-4
kerning first=114 second=45 amount=-1
kerning first=114 second=46 amount=-5
kerning first=114 second=58 amount=-1
kerning first=114 second=59 amount=-1
kerning first=114 second=97 amount=-1
kerning first=114 second=99 amount=-1
kerning first=114 second=100 amount=-1
kerning first=114 second=101 amount=-1
kerning first=114 second=103 amount=-1
kerning first=114 second=106 amount=-1
kerning first=114 second=107 amount=-1
kerning first=114 second=108 amount=-1
kerning first=114 second=111 amount=-1
kerning first=114 second=112 amount=-1
kerning first=114 second=113 amount=-1
kerning first=114 second=114 amount=-1
kerning first=114 second=115 amount=-1
kerning first=114 second=117 amount=-1
kerning first=114 second=118 amount=-1
kerning first=115 second=44 amount=-1
kerning first=115 second=46 amount=-2
kerning first=115 second=119 amount=-1
kerning first=118 second=44 amount=-2
kerning first=118 second=46 amount=-3
kerning first=118 second=97 amount=-1
kerning first=118 second=99 amount=-1
kerning first=118 second=100 amount=-1
kerning first=118 second=101 amount=-1
kerning first=118 second=111 amount=-1
kerning first=118 second=113 amount=-1
kerning first=119 second=44 amount=-3
kerning first=119 second=46 amount=-3
kerning first=119 second=97 amount=-1
kerning first=119 second=99 amount=-1
kerning first=119 second=100 amount=-1
kerning first=119 second=101 amount=-1
kerning first=119 second=111 amount=-1
kerning first=119 second=113 amount=-1
kerning first=120 second=99 amount=-1
kerning first=120 second=100 amount=-1
kerning first=120 second=101 amount=-1
kerning first=120 second=111 amount=-1
kerning first=121 second=44 amount=-3
kerning first=121 second=46 amount=-3
kerning first=121 second=97 amount=-1
kerning first=121 second=99 amount=-1
kerning first=121 second=100 amount=-1
kerning first=121 second=101 amount=-1
kerning first=121 second=103 amount=-1
kerning first=121 second=111 amount=-1
kerning first=121 second=115 amount=-1
kerning first=122 second=99 amount=-1
kerning first=122 second=100 amount=-1
kerning first=122 second=101 amount=-1
kerning first=122 second=111 amount=-1
